{
  "swagger": "2.0",
  "info": {
    "version": "1.0.0",
    "title": "NCI Directory API",
    "description": "Cancer genetics professional's locations and practice information"
  },
  "schemes": [
    "http"
  ],
  "basePath": "/",
  "paths": {
    "/specialists": {
      "get": {
        "summary": "Gets all cancer specialists in a given city who specialize in the given syndrome",
        "description": "Returns a list of specialist's locations in city who specialize in the given syndrome. \n_\nPossible cancer syndromes include: [Multiple endocrine neoplasia type 2, Rhabdoid predisposition syndrome, Thyroid cancer, familial medullary, Tuberous sclerosis complex, Mosaic variegated aneuploidy, Ataxia-telangiectasia, Breast/ovarian cancer, hereditary (BRCA1), Birt-Hogg-Dubé syndrome, Bloom syndrome, Colon cancer, hereditary non-polyposis - Lynch syndrome, Esophageal cancer with tylosis, Simpson-Golabi-Behmel syndrome, Melanoma, hereditary, multiple, Renal cell cancer, hereditary, Neurofibromatosis type 1, Fanconi anemia, Peutz-Jeghers syndrome, Carney complex, types I and II, Testicular germ cell tumor, familial, Von Hippel-Lindau syndrome, Costello syndrome, Basal cell nevus syndrome, Leukemia, acute myeloid, familial, Lymphoma, non-Hodgkin, familial, Li-Fraumeni syndrome, Prostate cancer, hereditary, Multiple endocrine neoplasia type 1, Werner syndrome, Gastrointestinal stromal tumor, hereditary, Beckwith-Wiedemann syndrome, Exostoses, hereditary multiple, Thyroid cancer, familial non-medullary, Hyperparathyroidism, familial, Neurofibromatosis type 2, Nijmegen breakage syndrome, Wilms tumor, familial, Polyposis, familial adenomatous, Neuroblastoma, hereditary, Pancreatic cancer, hereditary, Polyposis, familial juvenile, Leukemia, chronic lymphocytic, familial, Lymphoma, Hodgkin, familial, Retinoblastoma, hereditary, Rothmund-Thomson syndrome, Gastric cancer, hereditary diffuse, Polyposis, MYH-associated, Breast/ovarian cancer, hereditary (BRCA2), Chordoma, familial, Cowden syndrome, Multiple myeloma, familial, Waldenström macroglobulinemia, familial, Paraganglioma, hereditary, Dyskeratosis congenita, Xeroderma pigmentosum] \n_\nPossible cancer types include: [Skin, Gynecologic, Genitourinary, Endocrine, Neurologic, Head and Neck, Digestive/Gastrointestinal, Carcinoid tumor, Breast, Germ cell, Multiple, Head and neck, Ureter, Musculoskeletal, Hematologic, Eye, Lung]",
        "parameters": [
          {
            "name": "state",
            "in": "query",
            "required": false,
            "description": "A state e.g. South Carolina or SC",
            "type": "string"
          },
          {
            "name": "city",
            "in": "query",
            "required": false,
            "description": "A city e.g. Charleston",
            "type": "string"
          },
          {
            "name": "zip",
            "in": "query",
            "required": false,
            "description": "A zip e.g. 29425",
            "type": "string"
          },
          {
            "name": "cancer_type",
            "in": "query",
            "required": false,
            "description": "A cancer type e.g. Breast",
            "type": "string"
          },
          {
            "name": "syndrome",
            "in": "query",
            "required": false,
            "description": "A cancer syndrome e.g. Li-Fraumeni syndrome",
            "type": "string"
          }
        ],
        "responses": {
          "200": {
            "description": "A list of specialist's practice locations",
            "schema": {
              "properties": {
                "firstname": {
                  "type": "string"
                },
                "lastname": {
                  "type": "string"
                },
                "degree": {
                  "type": "string"
                },
                "profession_type": {
                  "type": "string"
                },
                "institution": {
                  "type": "string"
                },
                "address": {
                  "type": "string"
                },
                "city": {
                  "type": "string"
                },
                "state": {
                  "type": "string"
                },
                "zip": {
                  "type": "string"
                },
                "country": {
                  "type": "string"
                },
                "phone": {
                  "type": "string"
                },
                "email": {
                  "type": "string"
                },
                "cancer_type": {
                  "type": "string"
                },
                "syndrome": {
                  "type": "string"
                }
              }
            }
          },
          "404": {
            "description": "No results returned for this zipcode and syndrome"
          }
        }
      }
    }
  }
}
